<svg xmlns="http://www.w3.org/2000/svg" width="15.114" height="14.953" viewBox="0 0 15.114 14.953">
  <g id="Group_8628" data-name="Group 8628" transform="translate(0 0)">
    <path id="Path_55477" data-name="Path 55477" d="M38.936,188.818l1.435,1.435s1.135,1.255-.9,4.361c0,0-4.362,6.037-9.623,8.608,0,0-2.811,1.075-4.066-1.2a1.433,1.433,0,0,1,.48-1.971l2.151-1.435a1.5,1.5,0,0,1,1.851.3l.42.42s.48.715,1.556-.3c0,0,4.682-3.686,4.006-5.262l-.48-.9s-.6-.775.42-2.271l1.135-1.556A1.046,1.046,0,0,1,38.936,188.818Z" transform="translate(-25.574 -188.525)" fill="#c6c6c6"/>
  </g>
</svg>
