<svg id="noun_edit_1372808" xmlns="http://www.w3.org/2000/svg" width="19.163" height="19.163" viewBox="0 0 19.163 19.163">
  <g id="Group" transform="translate(0 0)">
    <path id="Compound_Path" data-name="Compound Path" d="M22.544,7.6a.675.675,0,0,0-.954,0L8.8,20.4a.675.675,0,0,0-.18.319l-1.2,5.018a.677.677,0,0,0,.814.814l5.018-1.2a.675.675,0,0,0,.319-.18l12.8-12.8a.675.675,0,0,0,0-.954Zm.139,6.541L19.82,11.277l2.249-2.249L24.933,11.9Z" transform="translate(-7.397 -7.403)" fill="#f79131"/>
  </g>
</svg>
