<svg xmlns="http://www.w3.org/2000/svg" width="17.291" height="16.08" viewBox="0 0 17.291 16.08">
  <g id="noun_back_2102859" transform="translate(-9.163)">
    <path id="Path_54855" data-name="Path 54855" d="M16.092,19.783h13.2L23.76,14.255a.928.928,0,0,1,1.312-1.312l7.111,7.111a.932.932,0,0,1,.116.142c.015.023.026.047.038.071a.542.542,0,0,1,.076.183c.008.027.018.052.024.079a.932.932,0,0,1,0,.363c-.005.027-.016.053-.024.079a.542.542,0,0,1-.076.183c-.013.024-.023.048-.038.071a.932.932,0,0,1-.116.142l-7.111,7.111a.928.928,0,0,1-1.312-1.312l5.527-5.528h-13.2a.928.928,0,0,1,0-1.856Z" transform="translate(-6.001 -12.671)" fill="#484848"/>
  </g>
</svg>
